module gitlab.com/biffen/washer

go 1.20

require (
	github.com/bmatcuk/doublestar/v3 v3.0.0
	github.com/imdario/mergo v0.3.15
	github.com/logrusorgru/aurora/v3 v3.0.0
	github.com/mitchellh/mapstructure v1.5.0
	github.com/stretchr/testify v1.8.2
	gitlab.com/biffen/error v0.2.0
	gitlab.com/biffen/go-applause v0.4.0
	golang.org/x/exp v0.0.0-20230425010034-47ecfdc1ba53
	golang.org/x/sync v0.1.0
	golang.org/x/term v0.7.0
	gopkg.in/yaml.v3 v3.0.1
)

require (
	github.com/davecgh/go-spew v1.1.1 // indirect
	github.com/kr/text v0.2.0 // indirect
	github.com/niemeyer/pretty v0.0.0-20200227124842-a10e7caefd8e // indirect
	github.com/pmezard/go-difflib v1.0.0 // indirect
	golang.org/x/sys v0.7.0 // indirect
	gopkg.in/check.v1 v1.0.0-20200902074654-038fdea0a05b // indirect
)
